INDEX VERSION 1.130+C:\Users\Prakat-D-002\git\Exide_POM_Framework\.metadata\.plugins\org.eclipse.jdt.core
1929933281.index
1859581415.index
362333955.index
2427407144.index
3092832808.index
505678510.index
3387838184.index
1408525351.index
3528302970.index
402176616.index
1531036210.index
1721714348.index
1921432459.index
2931555908.index
781461902.index
793018589.index
792201975.index
2451833951.index
2349671270.index
3075621779.index
2936170451.index
2672315831.index
2825787128.index
1419512665.index
1197522075.index
2561933417.index
3484533631.index
1060104206.index
2899986050.index
1312586118.index
2251734579.index
2961829441.index
3090200246.index
136936140.index
3952659405.index
1369276044.index
3138196214.index
563049188.index
2653504279.index
3519957672.index
686817045.index
4266428024.index
2546076573.index
1295027826.index
1127432207.index
2848187329.index
3188099249.index
3181790945.index
565899265.index
3668053256.index
3749063003.index
1927186050.index
4156828467.index
1594936230.index
2959645741.index
2604088678.index
1433036224.index
4157940025.index
1143402369.index
173432835.index
4125683991.index
3233176090.index
47619159.index
2033839043.index
3895684646.index
756006386.index
976278922.index
905557982.index
